Proyecto1Digitales2/whatif/parallel-serial/prueba_parallel_serial.vcd
$date
	Fri Oct 15 16:56:32 2021
$end
$version
	Icarus Verilog
$end
$timescale
	1ps
$end
$scope module BUF $end
$var wire 1 ! A $end
$var wire 1 " Y $end
$upscope $end
$scope module DFF $end
$var wire 1 # C $end
$var wire 1 $ D $end
$var reg 1 % Q $end
$upscope $end
$scope module DFFSR $end
$var wire 1 & C $end
$var wire 1 ' D $end
$var wire 1 ( R $end
$var wire 1 ) S $end
$var reg 1 * Q $end
$upscope $end
$scope module NAND $end
$var wire 1 + A $end
$var wire 1 , B $end
$var wire 1 - Y $end
$upscope $end
$scope module NOR $end
$var wire 1 . A $end
$var wire 1 / B $end
$var wire 1 0 Y $end
$upscope $end
$scope module NOT $end
$var wire 1 1 A $end
$var wire 1 2 Y $end
$upscope $end
$scope module testbench_parallel_serial $end
$var wire 1 3 valid_in $end
$var wire 1 4 reset $end
$var wire 1 5 clk_32f $end
$var wire 1 6 Data_out_e $end
$var wire 1 7 Data_out_c $end
$var wire 8 8 Data_in [7:0] $end
$scope module parallel_serial_1 $end
$var wire 1 3 valid_in $end
$var wire 1 4 reset $end
$var wire 1 5 clk_32f $end
$var wire 8 9 Data_in [7:0] $end
$var reg 1 7 Data_out_c $end
$var reg 3 : contador [2:0] $end
$var reg 8 ; data2send [7:0] $end
$upscope $end
$scope module parallel_serial_2 $end
$var wire 1 < _6_ $end
$var wire 1 3 valid_in $end
$var wire 1 4 reset $end
$var wire 1 5 clk_32f $end
$var wire 8 = Data_in [7:0] $end
$var reg 1 6 Data_out_e $end
$var reg 1 > _0_ $end
$var reg 3 ? _1_ [2:0] $end
$var reg 8 @ _2_ [7:0] $end
$var reg 1 A _3_ $end
$var reg 3 B _4_ [2:0] $end
$var reg 8 C _5_ [7:0] $end
$var reg 3 D contador [2:0] $end
$var reg 8 E data2send [7:0] $end
$upscope $end
$scope module probador_1 $end
$var wire 1 7 Data_out_c $end
$var wire 1 6 Data_out_e $end
$var reg 8 F Data_in [7:0] $end
$var reg 1 G checker $end
$var reg 1 5 clk_32f $end
$var reg 1 4 reset $end
$var reg 1 3 valid_in $end
$upscope $end
$upscope $end
$enddefinitions $end
#0
$dumpvars
1G
b0 F
b10111100 E
b0 D
b10111100 C
b1 B
1A
b10111100 @
b0 ?
0>
b0 =
1<
b10111100 ;
b0 :
b0 9
b0 8
07
06
05
04
03
z2
z1
x0
z/
z.
x-
z,
z+
x*
z)
z(
z'
z&
x%
z$
z#
z"
z!
$end
#1000
0G
b1 B
1A
0>
b0 ?
b1 :
17
06
b0 D
15
#2000
05
#3000
1G
b1 B
1A
0>
b0 ?
06
b0 D
b10 :
07
15
#4000
05
#5000
b10 B
0A
1>
b1 ?
0<
b11 :
17
16
b1 D
14
15
#6000
05
#7000
0G
b11 B
1A
0>
b10 ?
06
b10 D
b100 :
15
#8000
05
#9000
1G
b100 B
1>
b11 ?
b101 :
16
b11 D
15
#10000
05
#11000
b101 B
b100 ?
b100 D
b110 :
15
#12000
05
#13000
0G
b110 B
b101 ?
b111 :
07
b101 D
15
#14000
05
#15000
b111 B
0A
b110 ?
b110 D
b0 :
15
#16000
05
#17000
0>
b111 ?
b11111111 C
b0 B
b1 :
17
06
b111 D
b11111111 8
b11111111 9
b11111111 =
b11111111 F
13
15
#18000
05
#19000
b1 B
1A
b11111111 @
b0 ?
1G
b11111111 E
b0 D
b10 :
07
15
#20000
05
#21000
b10 B
1>
b1 ?
b11 :
17
16
b1 D
15
#22000
05
#23000
b11 B
b10 ?
b10 D
b100 :
15
#24000
05
#25000
b100 B
b11 ?
b101 :
b11 D
15
#26000
05
#27000
b101 B
b100 ?
b100 D
b110 :
15
#28000
05
#29000
0G
b110 B
b101 ?
b111 :
07
b101 D
15
#30000
05
#31000
b111 B
b110 ?
b110 D
b11111111 ;
b0 :
15
#32000
05
#33000
1G
b111 ?
b11101110 C
b0 B
b1 :
17
b111 D
b11101110 8
b11101110 9
b11101110 =
b11101110 F
15
#34000
05
#35000
b1 B
b11101110 @
b0 ?
b11101110 E
b0 D
b10 :
15
#36000
05
#37000
b10 B
b1 ?
b11 :
b1 D
15
#38000
05
#39000
b11 B
b10 ?
b10 D
b100 :
15
#40000
05
#41000
b100 B
0A
b11 ?
b101 :
b11 D
15
#42000
05
#43000
0G
b101 B
1A
0>
b100 ?
06
b100 D
b110 :
15
#44000
05
#45000
1G
b110 B
1>
b101 ?
b111 :
16
b101 D
15
#46000
05
#47000
b111 B
b110 ?
b110 D
b11101110 ;
b0 :
15
#48000
05
#49000
b111 ?
b10101010 C
b0 B
0A
b1 :
b111 D
b10101010 8
b10101010 9
b10101010 =
b10101010 F
15
#50000
05
#51000
0G
b1 B
1A
b10101010 @
0>
b0 ?
b10101010 E
06
b0 D
b10 :
15
#52000
05
#53000
1G
b10 B
0A
1>
b1 ?
b11 :
16
b1 D
15
#54000
05
#55000
b11 B
1A
0>
b10 ?
06
b10 D
b100 :
07
15
#56000
05
#57000
b100 B
0A
1>
b11 ?
b101 :
17
16
b11 D
15
#58000
05
#59000
0G
b101 B
1A
0>
b100 ?
06
b100 D
b110 :
15
#60000
05
#61000
1G
b110 B
0A
1>
b101 ?
b111 :
16
b101 D
15
#62000
05
#63000
b111 B
1A
0>
b110 ?
06
b110 D
b10101010 ;
b0 :
07
15
#64000
05
#65000
1>
b111 ?
b10111100 C
b0 B
0A
b1 :
17
16
b111 D
03
15
#66000
05
#67000
b1 B
1A
b10111100 @
0>
b0 ?
b10111100 E
06
b0 D
b10 :
07
15
#68000
05
#69000
b10 B
0A
1>
b1 ?
b11 :
17
16
b1 D
15
#70000
05
#71000
b11 B
1A
0>
b10 ?
06
b10 D
b100 :
07
15
#72000
05
#73000
b100 B
1>
b11 ?
b101 :
17
16
b11 D
15
#74000
05
#75000
b101 B
b100 ?
0G
b100 D
b110 :
07
15
#76000
05
#77000
1G
b110 B
b101 ?
b111 :
17
b101 D
15
#78000
05
#79000
b111 B
0A
b110 ?
0G
b110 D
b10111100 ;
b0 :
07
15
#80000
05
#81000
0>
b111 ?
b11001100 C
b0 B
b1 :
17
06
b111 D
b11001100 8
b11001100 9
b11001100 =
b11001100 F
13
15
#82000
05
#83000
b1 B
1A
b11001100 @
b0 ?
1G
b11001100 E
b0 D
b10 :
07
15
#84000
05
#85000
b10 B
1>
b1 ?
b11 :
17
16
b1 D
15
#86000
05
#87000
b11 B
0A
b10 ?
b10 D
b100 :
15
#88000
05
#89000
0G
b100 B
0>
b11 ?
b101 :
06
b11 D
15
#90000
05
#91000
b101 B
1A
b100 ?
b100 D
b110 :
15
#92000
05
#93000
b110 B
1>
b101 ?
b111 :
07
16
b101 D
15
#94000
05
#95000
b111 B
0A
b110 ?
b110 D
b11001100 ;
b0 :
15
#96000
05
#97000
0>
b111 ?
b10111100 C
b0 B
b1 :
17
06
b111 D
03
15
#98000
05
#99000
b1 B
1A
b10111100 @
b0 ?
b10111100 E
b0 D
b10 :
15
#100000
05
#101000
b10 B
0A
1>
b1 ?
b11 :
07
16
b1 D
15
#102000
05
#103000
1G
b11 B
1A
0>
b10 ?
06
b10 D
b100 :
15
#104000
05
#105000
b100 B
1>
b11 ?
b101 :
17
16
b11 D
15
#106000
05
#107000
b101 B
b100 ?
b100 D
b110 :
15
#108000
05
#109000
0G
b110 B
b101 ?
b111 :
07
b101 D
15
#110000
05
#111000
b111 B
0A
b110 ?
b110 D
b10111100 ;
b0 :
15
#112000
05
#113000
b0 B
0>
b111 ?
b1 :
17
06
b111 D
15
#114000
05
#115000
b1 B
1A
b0 ?
1G
b0 D
b10 :
07
15
#116000
05
#117000
b10 B
0A
1>
b1 ?
b11 :
17
16
b1 D
15
#118000
05
#119000
0G
b11 B
1A
0>
b10 ?
06
b10 D
b100 :
15
#120000
05
#121000
1G
b100 B
1>
b11 ?
b101 :
16
b11 D
15
#122000
05
#123000
b101 B
b100 ?
b100 D
b110 :
15
#124000
05
#125000
0G
b110 B
b101 ?
b111 :
07
b101 D
15
#126000
05
#127000
b111 B
0A
b110 ?
b110 D
b0 :
15
#128000
05
#129000
b0 B
0>
b111 ?
b1 :
17
06
b111 D
15
#130000
05
#131000
b1 B
1A
b0 ?
1G
b0 D
b10 :
07
15
#132000
05
#133000
b10 B
0A
1>
b1 ?
b11 :
17
16
b1 D
15
#134000
05
#135000
0G
b11 B
1A
0>
b10 ?
06
b10 D
b100 :
15
#136000
05
#137000
1G
b100 B
1>
b11 ?
b101 :
16
b11 D
15
#138000
05
#139000
b101 B
b100 ?
b100 D
b110 :
15
#140000
05
#141000
0G
b110 B
b101 ?
b111 :
07
b101 D
15
#142000
05
#143000
b111 B
0A
b110 ?
b110 D
b0 :
15
#144000
05
#145000
b0 B
0>
b111 ?
b1 :
17
06
b111 D
15
